…
m_df <-
        left_join(lft_df, rght_df)

m_df %>%
        mutate(diff = ord1 - vis1) %>%
        count(diff) %>%
        drop_na # in case the majority of visitors didn't order anything
```

```
## # A tibble: 349 x 2
##    diff       n
##    <drtn> <int>
##  1 0 days 25039
##  2 1 days  1966
##  3 2 days   685
##  4 3 days   452
##  5 4 days   386
##  6 5 days   307
##  7 6 days   264
##  8 7 days   237
##  9 8 days   216
## 10 9 days   162
## # ... with 339 more rows
```
…
